887567 297971 525
599825 822835 509
673689 67785 509
508719 831137 509
20197 860206 525
508851 610223 470
711988 429447 509
679727 262590 509
313514 938245 525
949440 279342 525
791417 199858 509
563449 513150 452
68750 611853 470
844018 158570 525
810956 279745 509
173900 265242 443
20669 586104 470
617226 792282 509
573707 540738 452
853473 97553 525
230343 875797 525
31826 43499 324
876699 714974 525
127015 499694 449
419481 778694 509
667340 413026 509
395055 222209 443
235120 987628 525
978758 290301 525
23553 89394 351
134058 376717 443
886573 901920 445
699997 808251 504
696963 97805 509
96827 139948 354
289575 445456 449
761962 84329 509
998310 224370 525
422658 113899 449
436280 182660 449
501437 90198 449
209659 929396 525
430390 508239 444
673533 131401 509
807640 127220 509
623522 32749 470
22473 576447 470
249715 641350 509
140759 677573 509
694591 71473 509
996475 738673 525
771541 510583 509
955015 959403 352
476376 78416 449
162814 743547 509
29873 577792 470
559879 47864 470
804550 788799 468
134816 61944 354
739152 27707 509
101363 370108 443
847976 552108 525
108147 600794 470
734029 548911 509
507108 482907 426
500191 724882 509
186678 759962 509
147993 459660 449
483119 403617 449
692328 770062 504
469946 495929 426
41692 986545 525
587698 863280 525
341577 923760 525
499348 820554 509
114769 648596 509
472165 584323 470
694676 317379 509
283185 554051 470
750590 245072 509
358862 878188 525
666875 550899 509
54026 303898 443
854992 270083 525
337935 713150 509
600783 170708 470
894217 848537 445
7139 795615 509
269418 6578 443
786002 848700 525
209773 120076 383
327306 610125 470
14342 307995 443
422789 409424 449
668458 76358 509
919882 243295 525
688199 156354 509
186838 678544 509
980317 91840 525
498632 97683 449
854276 171361 525
550274 623723 447
219097 215737 386
203200 570660 470
976355 571508 525
604131 345295 470
124001 306807 443
206031 184980 360
596184 187155 470
193397 876009 525
694333 947498 525
692851 335801 509
86162 581678 470
584429 493159 470
922714 42073 525
79233 732042 509
1501 779935 509
126833 129285 331
452837 85226 449
730366 822175 468
125572 504546 449
117563 839977 525
308618 189458 443
363316 323888 441
688298 351353 509
912706 874831 476
995554 649324 525
249622 362779 441
600269 700588 509
315763 194247 443
711346 821455 468
92414 169850 383
747851 990351 525
675790 305325 509
243491 778373 509
809753 222546 509
224694 207197 386
615753 113239 470
353931 261804 441
911978 217756 525
180234 830926 509
861527 402009 525
323308 502063 449
894421 728049 525
297735 915500 525
208514 436874 449
872989 909566 445
131340 394614 443
337706 499989 449
559977 359435 470
379894 947853 525
448773 346331 449
142264 431910 449
27411 695541 509
629573 853260 525
87954 438369 449
402945 414674 449
363721 910227 525
573488 499190 470
197001 950154 525
233837 181424 443
195069 377942 443
887977 51017 525
419097 922604 525
553513 194024 470
897190 507008 525
406797 134082 443
156562 156896 308
281801 502554 449
694201 815496 504
979381 730772 525
650737 774903 504
281647 215343 443
169115 164226 352
459316 555108 470
209342 385370 443
204247 517985 470
835293 635984 504
221963 937740 525
783771 858843 525
155009 260723 443
407176 121399 443
35866 521274 470
772257 809447 468
241436 423851 449
688338 216051 509
930076 462214 525
143372 500425 449
408067 822241 509
111265 490184 449
143739 716608 509
870053 904840 445
815050 359671 509
937855 200660 525
505894 280169 449
875228 183775 525
248507 802842 509
743587 243726 509
974761 169278 525
202877 920805 525
873314 472055 525
363166 543439 470
280169 638618 509
892819 441230 525
990275 156733 525
822886 732099 468
821365 239806 509
447583 45858 449
776534 621765 509
465033 537258 470
759921 721235 424
520494 543200 408
233246 514838 470
151179 68914 375
685823 63850 509
696721 887457 525
22355 654232 509
300759 805602 509
365524 879109 525
951399 32238 525
465893 101900 449
260478 186039 443
159932 646700 509
321516 196360 443
308846 89792 443
343749 583857 470
124120 100672 354
290315 842704 525
473862 927084 525
710745 115189 509
891315 291800 525
279924 988303 525
964896 706296 525
999091 583584 525
716638 646067 504
468663 92336 449
791621 615851 509
523941 856199 525
367711 660903 509
586999 268872 470
812822 942816 525
565666 618831 447
203945 700858 509
260686 657244 509
651163 389923 509
560509 151884 470
98067 944379 525
825853 699620 504
403207 483845 449
543844 624677 452
268635 702001 509
901251 305793 525
859205 126309 525
403523 745576 509
888182 528833 525
827184 531845 509
931201 286376 525
953714 529048 525
666991 893246 525
352584 43211 443
623858 173437 470
406291 45276 443
737334 483677 509
341490 771555 509
115129 909992 525
721026 382738 509
366329 43804 443
327012 655085 509
715909 488658 509
864614 43758 525
431583 128173 449
799127 173769 509
734992 357815 509
530824 463480 470
266735 340580 407
313801 372585 441
893448 939149 476
160183 545412 470
657555 364149 509
86216 722722 509
347820 753084 509
465266 797063 509
514501 542949 439
157588 221463 386
48176 925160 525
57154 702305 509
697257 454022 509
22189 382022 443
70669 556616 470
986636 853728 507
278698 877809 525
223944 152145 386
880070 74982 525
765722 679036 504
847638 892597 445
862325 856841 370
458680 918979 525
553343 870698 525
380214 926535 525
714144 717356 380
