670012 808591 504
222599 738856 509
681715 669683 385
242733 87859 443
293413 501133 449
58298 750359 509
688900 385626 509
370078 143918 443
817725 987149 525
580146 918551 525
657564 267625 509
885370 786208 525
564113 418811 470
158408 864110 525
117111 931846 525
356824 301791 441
593974 267200 470
915602 4737 525
227537 755616 509
763581 838663 525
611403 635328 509
969450 953945 414
259928 164581 443
226541 692694 509
943548 30165 525
936480 465533 525
230039 399967 443
224104 668105 509
74475 26947 340
151845 653436 509
346846 805279 509
502290 485722 426
682118 269105 509
781893 720526 468
281060 150410 443
260146 340052 407
420012 159676 449
835683 940224 525
293511 757544 509
506867 487945 426
632691 190331 509
278681 194600 443
482548 501892 426
716941 36767 509
105080 125632 354
124527 935307 525
126218 398441 443
381937 675963 509
983838 156097 525
720189 989246 525
273015 529154 470
991027 729427 525
782191 154133 509
947232 606472 525
881291 532394 525
850733 196058 525
580871 856643 525
777372 531936 509
917830 81899 525
621624 805915 509
897488 698312 525
640620 771659 504
815706 670925 504
795137 621784 509
909914 265225 525
986170 720787 525
463200 83467 449
5989 74164 340
149167 63275 375
554715 339992 470
951482 745882 525
186350 171174 365
343188 571292 470
90105 416245 449
80110 95271 333
983318 469442 525
282099 223173 443
703530 465503 509
698842 106554 509
824233 436279 509
818458 18265 509
643755 757269 504
719169 851895 525
88623 647266 509
953397 790001 525
943065 538096 525
395404 675431 509
53301 795476 509
227664 324322 443
634791 729508 504
499995 260189 449
419563 580465 470
600690 426298 470
16577 312180 443
993383 616409 525
859457 117505 525
857885 751113 525
802589 785448 468
106713 959934 525
423925 938124 525
389241 330001 441
242983 847074 525
664811 414623 509
900825 677549 525
252891 214411 443
551527 849945 525
700982 926473 525
385868 554433 470
953191 166537 525
60062 185599 383
237522 913928 525
861662 665009 525
190881 347607 443
246321 800810 509
684633 82457 509
198020 858894 525
169803 890522 525
352233 542810 470
892965 644705 525
506121 550654 470
968014 668445 525
995287 208368 525
390368 458317 449
66372 490180 449
860522 840510 419
372525 887041 525
259072 907190 525
878490 483508 525
657151 277490 509
528756 788942 509
449348 10649 449
915099 387953 525
806692 598096 509
354880 359823 379
93070 511987 470
352205 853471 525
827288 733653 468
355233 798847 509
145976 207597 383
85624 329052 443
79325 181160 383
900750 442997 525
951599 275744 525
585327 65870 470
752752 257564 509
120207 621670 470
250691 260748 363
988232 647627 525
623474 344640 470
643084 135065 509
308567 355842 441
52885 204576 383
936349 110161 525
930976 904853 476
874299 733727 525
56466 502781 449
840228 991593 507
388429 226596 443
297688 662251 509
846010 41704 525
600831 524867 452
347826 207626 443
923412 941927 507
233878 594663 470
433930 905254 525
481693 799567 509
576490 250348 470
108443 963534 525
64539 996542 525
750436 682756 504
828175 193299 509
900625 56780 525
929079 296256 525
251422 288214 407
382187 999714 525
475669 878126 525
334426 838135 525
969355 296095 525
249529 102486 443
857204 150467 525
720786 497543 509
914531 988164 507
192342 194151 347
246994 913340 525
92980 312596 443
329590 242849 407
147237 347793 443
118013 271191 443
764343 681446 504
919267 740784 525
665394 142566 509
2212 175870 383
387308 40747 443
555773 449890 470
88116 88971 302
778695 979931 525
609547 998282 525
776111 535110 509
395929 43769 443
484699 448620 444
26592 854087 525
23344 541359 470
146712 688596 509
504194 592145 470
821003 143752 509
441384 613719 470
863988 670573 525
331882 719462 509
436434 397372 449
631671 830014 504
893322 721479 525
227270 667449 509
878384 611914 525
538160 719085 509
372338 481309 449
706419 82334 509
180358 497680 449
44285 828614 509
935378 447148 525
308103 240102 407
830763 44168 509
72210 417083 449
841833 251979 525
411655 981526 525
616983 672733 509
285996 519710 470
595942 662668 509
495059 480319 426
907717 549989 525
530687 200465 470
740737 154023 509
384762 996130 525
351595 595584 470
942294 113560 525
320190 774000 509
658729 707865 504
839729 255999 525
683256 242595 509
902090 208374 525
489138 894435 525
799404 25558 509
538610 890164 525
979742 347382 525
375649 359424 410
406442 888813 525
539082 862386 525
185859 418695 449
797337 410211 509
218312 479478 449
796805 731781 468
