871654 126889 525
482809 81317 449
301613 987917 525
328410 674363 509
277941 395855 441
851567 445787 525
377628 353083 423
504788 72368 449
87573 211288 383
717828 725951 411
194887 462292 449
877695 410843 525
257346 366100 441
2786 873897 525
307598 44923 443
339456 976171 525
88974 702353 509
313488 442665 449
870896 645739 525
512074 283925 470
97204 327704 443
879366 898845 445
403091 36144 443
482238 974992 525
640863 434163 509
178504 176811 347
1919 479867 449
938529 243883 525
744117 2951 509
764016 335810 509
668954 696957 442
947705 392166 525
563288 776792 509
694468 575682 509
88399 581959 470
580951 249490 470
823835 153952 509
508424 294857 449
702460 747068 504
986491 919120 507
188045 744596 509
806175 899843 525
617974 312351 470
344832 580407 470
226053 601752 470
469161 796316 509
321867 453716 449
51564 626832 509
674405 587064 509
284047 841070 525
952534 499842 525
779789 159290 509
739705 134540 509
889816 69176 525
461827 840966 525
620408 683705 509
941455 415584 525
733892 963073 525
668616 579281 509
693995 743903 504
456360 612589 470
599224 373657 470
628101 278547 509
45046 53924 340
352997 58421 443
722286 687166 504
586378 803283 509
992407 937891 507
44653 225155 386
286270 930487 525
813900 643009 504
851639 725366 525
309855 994244 525
371339 693261 509
647270 566172 509
865610 256083 525
696534 727001 504
527939 685966 509
876509 53821 525
941901 542196 525
817449 185101 509
414869 342499 449
482779 695541 509
146124 201319 383
538198 123797 470
19031 8226 279
103099 549401 470
765369 284112 509
438652 188324 449
434231 991730 525
232362 149433 443
772318 129395 509
180820 347770 443
257441 192158 443
902672 630588 525
318948 432323 449
982981 813472 525
195915 159271 370
769228 889834 525
902776 193695 525
584672 797892 509
558764 382834 470
402295 673635 509
813805 300582 509
389768 331034 441
830535 441890 509
747984 317297 509
110301 524386 470
694588 829529 504
74114 66229 325
999660 327815 525
511981 973339 525
679486 215802 509
462536 518009 470
704653 17419 509
791287 655717 504
369367 19102 443
958210 151784 525
889308 948153 507
837126 753910 468
407205 952238 525
966662 185754 525
547244 87286 470
33163 107586 354
689273 800727 504
518797 274762 470
207494 825382 509
822412 629163 504
771160 457406 509
492778 191423 449
471375 241251 449
677980 771692 504
114420 348953 443
786065 43582 509
297471 430720 449
807869 245541 509
276601 369270 441
50682 121811 354
183725 759292 509
146030 936573 525
137012 637303 509
962866 767864 525
5702 217127 386
907780 646492 525
902918 420120 525
652516 680225 442
795446 757470 468
581388 975627 525
292379 463459 449
541628 321851 470
650244 688692 442
557277 252332 470
531088 964554 525
219684 581081 470
588322 60618 470
809392 422188 509
675854 767504 504
352102 451539 449
832713 337648 509
456313 149275 449
226820 823305 509
938255 174236 525
751427 938031 525
25165 927687 525
739856 296154 509
78188 547263 470
116301 300186 443
318893 660069 509
238078 133327 443
439385 474474 444
948755 180029 525
681610 448568 509
938909 393564 525
226706 982396 525
864446 567414 525
681806 740010 504
463536 498299 426
859285 245199 525
85259 913233 525
508502 914902 525
423017 899413 525
925651 536930 525
195284 125305 383
596204 892854 525
497456 884819 525
860864 776199 525
684901 981224 525
976134 608386 525
832256 484570 509
591480 183363 470
710967 378951 509
513700 321475 470
435066 480259 444
189105 498792 449
696042 456860 509
123314 947755 525
590402 830761 509
958566 484447 525
245830 301358 407
592544 804249 509
548375 411931 470
192495 733228 509
664170 727129 504
235375 68115 443
411009 32944 449
253806 551527 470
7064 301547 443
930657 107619 525
711514 533541 509
852127 163510 525
883007 288823 525
725379 764908 424
885276 484834 525
480803 876642 525
847496 163015 525
287434 51347 443
73264 355257 443
895057 704340 525
162210 42529 383
308284 814087 509
427999 417990 418
997172 9143 525
