2000 1000 182
3000 2000 217
4000 3000 238
5000 4000 215
6000 5000 236
7000 6000 262
8000 7000 252
9000 8000 247
10000 9000 260
11000 10000 268
12000 11000 250
13000 12000 263
14000 13000 276
15000 14000 271
16000 15000 271
17000 16000 266
18000 17000 279
19000 18000 261
20000 19000 274
21000 20000 256
22000 21000 269
23000 22000 269
24000 23000 282
25000 24000 264
26000 25000 264
27000 26000 308
28000 27000 259
29000 28000 259
30000 29000 272
31000 30000 272
32000 31000 285
33000 32000 267
34000 33000 267
35000 34000 311
36000 35000 324
37000 36000 249
38000 37000 306
39000 38000 244
40000 39000 306
41000 40000 288
42000 41000 257
43000 42000 288
44000 43000 270
45000 44000 270
46000 45000 314
47000 46000 283
48000 47000 314
49000 48000 296
50000 49000 296
51000 50000 278
52000 51000 309
53000 52000 340
54000 53000 322
55000 54000 260
56000 55000 260
57000 56000 322
58000 57000 304
59000 58000 273
60000 59000 304
61000 60000 335
62000 61000 317
63000 62000 286
64000 63000 330
65000 64000 299
66000 65000 268
67000 66000 268
68000 67000 312
69000 68000 312
70000 69000 299
71000 70000 312
72000 71000 325
73000 72000 263
74000 73000 294
75000 74000 325
76000 75000 307
77000 76000 307
78000 77000 351
79000 78000 338
80000 79000 307
81000 80000 320
82000 81000 320
83000 82000 320
84000 83000 289
85000 84000 320
86000 85000 302
87000 86000 302
88000 87000 333
89000 88000 333
90000 89000 315
91000 90000 315
92000 91000 333
93000 92000 315
94000 93000 284
95000 94000 315
96000 95000 328
97000 96000 297
98000 97000 297
99000 98000 284
100000 99000 328
101000 100000 341
102000 101000 310
103000 102000 310
104000 103000 248
105000 104000 310
106000 105000 341
107000 106000 354
108000 107000 292
109000 108000 279
110000 109000 310
111000 110000 292
112000 111000 323
113000 112000 323
114000 113000 292
115000 114000 305
116000 115000 349
117000 116000 305
118000 117000 305
119000 118000 336
120000 119000 305
121000 120000 318
122000 121000 336
123000 122000 318
124000 123000 331
125000 124000 287
126000 125000 318
127000 126000 331
128000 127000 287
129000 128000 331
130000 129000 344
131000 130000 331
132000 131000 300
133000 132000 331
134000 133000 313
135000 134000 300
136000 135000 344
137000 136000 313
138000 137000 331
139000 138000 313
140000 139000 313
141000 140000 344
142000 141000 326
143000 142000 375
144000 143000 282
145000 144000 326
146000 145000 295
147000 146000 357
148000 147000 295
149000 148000 326
150000 149000 326
151000 150000 370
152000 151000 295
153000 152000 308
154000 153000 308
155000 154000 352
156000 155000 308
157000 156000 383
158000 157000 339
159000 158000 321
160000 159000 352
161000 160000 370
162000 161000 290
163000 162000 339
164000 163000 321
165000 164000 334
166000 165000 321
167000 166000 352
168000 167000 321
169000 168000 321
170000 169000 334
171000 170000 290
172000 171000 334
173000 172000 303
174000 173000 347
175000 174000 334
176000 175000 272
177000 176000 334
178000 177000 334
179000 178000 347
180000 179000 303
181000 180000 365
182000 181000 316
183000 182000 334
184000 183000 254
185000 184000 316
186000 185000 329
187000 186000 347
188000 187000 329
189000 188000 316
190000 189000 360
191000 190000 329
192000 191000 329
193000 192000 347
194000 193000 329
195000 194000 342
196000 195000 360
197000 196000 298
198000 197000 285
199000 198000 329
200000 199000 329
201000 200000 342
202000 201000 311
203000 202000 342
204000 203000 311
205000 204000 311
206000 205000 355
207000 206000 373
208000 207000 311
209000 208000 311
210000 209000 311
211000 210000 342
212000 211000 355
213000 212000 355
214000 213000 373
215000 214000 293
216000 215000 280
217000 216000 386
218000 217000 324
219000 218000 324
220000 219000 355
221000 220000 324
222000 221000 355
223000 222000 324
224000 223000 324
225000 224000 324
226000 225000 368
227000 226000 368
228000 227000 306
229000 228000 355
230000 229000 306
231000 230000 443
232000 231000 350
233000 232000 337
234000 233000 368
235000 234000 381
236000 235000 306
237000 236000 337
238000 237000 350
239000 238000 306
240000 239000 350
241000 240000 368
242000 241000 275
243000 242000 319
244000 243000 337
245000 244000 275
246000 245000 319
247000 246000 332
248000 247000 350
249000 248000 288
250000 249000 350
251000 250000 332
